<svg xmlns="http://www.w3.org/2000/svg" xmlns:xlink="http://www.w3.org/1999/xlink" version="1.1" width="1000" height="1000" viewBox="0 0 1000 1000" xml:space="preserve">
<desc>Created with Fabric.js 3.5.0</desc>
<defs>
</defs>
<rect x="0" y="0" width="100%" height="100%" fill="rgba(0,0,0,0)"/>
<g transform="matrix(2.7033 0 0 2.7033 499.9978 494.6617)" id="Layer_1">
<path style="stroke: none; stroke-width: 1; stroke-dasharray: none; stroke-linecap: butt; stroke-dashoffset: 0; stroke-linejoin: miter; stroke-miterlimit: 4; is-custom-font: none; font-file-url: none; fill: rgb(255,255,255); fill-rule: nonzero; opacity: 1;" transform=" translate(-148.9347, -155.9564)" d="M 203 31 a 74.32 74.32 0 0 0 -97.6 38.69 L 56.25 183.28 A 74.24 74.24 0 0 0 192.54 242.2 l 49.09 -113.57 A 74.33 74.33 0 0 0 203 31 Z m 23.54 91.05 L 177.4 235.65 a 57.74 57.74 0 1 1 -106 -45.82 L 120.49 76.26 a 57.74 57.74 0 0 1 106 45.82 Z" stroke-linecap="round"/>
</g>
<g transform="matrix(2.7033 0 0 2.7033 499.9971 496.9583)" id="Layer_1">
<path style="stroke: none; stroke-width: 1; stroke-dasharray: none; stroke-linecap: butt; stroke-dashoffset: 0; stroke-linejoin: miter; stroke-miterlimit: 4; is-custom-font: none; font-file-url: none; fill: rgb(255,255,255); fill-rule: nonzero; opacity: 1;" transform=" translate(-148.9339, -156.8049)" d="M 184.89 166 a 7 7 0 0 0 -8.28 -4.64 c -23 5.3 -41 -2.21 -50.52 -21.12 a 7 7 0 0 0 -8.68 -3.45 l -0.36 0.14 a 7 7 0 0 0 -3.79 9.6 c 12.5 24.87 37.1 35.49 66.64 28.72 a 7 7 0 0 0 5.1 -8.89 Z" stroke-linecap="round"/>
</g>
</svg>