[
    {
      "name": "Home",
      "slug": "/"
    },
    {
      "name": "Category",
      "childrens": [
        {
            "id": 30,
            "name": "Steroid",
            "desc": "Steroid",
            "slug": "/category/steroid",
            "created_at": "2022-05-29T12:50:49.437004+01:00",
            "updated_at": "2022-05-29T12:50:49.437011+01:00"
        },
        {
            "id": 29,
            "name": "Anti Inflamatory",
            "desc": "Anti inflamatory",
            "slug": "/category/anti-inflamatory",
            "created_at": "2022-05-29T12:50:49.433708+01:00",
            "updated_at": "2022-05-29T12:50:49.433716+01:00"
        },
        {
            "id": 28,
            "name": "Anti Helmintic",
            "desc": "Anti helmintic",
            "slug": "/category/anti-helmintic",
            "created_at": "2022-05-29T12:50:49.429457+01:00",
            "updated_at": "2022-05-29T12:50:49.429465+01:00"
        },
        {
            "id": 27,
            "name": "Vitamins, Amino acids & Supplements",
            "desc": "Vitamins, Amino acids & Supplements",
            "slug": "/category/vitaminsamino-acids-supplements",
            "created_at": "2022-05-29T12:50:49.425989+01:00",
            "updated_at": "2022-05-29T12:50:49.425996+01:00"
        },
        {
            "id": 26,
            "name": "Protective & Disinfecting Devices",
            "desc": "Protective & Disinfecting Devices",
            "slug": "/category/protective-disinfecting-devices",
            "created_at": "2022-05-29T12:50:49.423063+01:00",
            "updated_at": "2022-05-29T12:50:49.423070+01:00"
        },
        {
            "id": 25,
            "name": "Protection Materials",
            "desc": "Protection Materials",
            "slug": "/category/protection-materials",
            "created_at": "2022-05-29T12:50:49.419897+01:00",
            "updated_at": "2022-05-29T12:50:49.419903+01:00"
        },
        {
            "id": 23,
            "name": "Vaccines",
            "desc": "Vaccines",
            "slug": "/category/vaccines",
            "created_at": "2022-05-29T12:50:49.413356+01:00",
            "updated_at": "2022-05-29T12:50:49.413364+01:00"
        },
        {
            "id": 21,
            "name": "Sexual Health",
            "desc": "Sexual Health",
            "slug": "/category/sexual-health",
            "created_at": "2022-05-29T12:50:49.406376+01:00",
            "updated_at": "2022-05-29T12:50:49.406384+01:00"
        },
        {
            "id": 20,
            "name": "Rapid Diagnostic Test Devices",
            "desc": "Rapid Diagnostic Test Devices",
            "slug": "/category/rapid-diagnostic-test-devices",
            "created_at": "2022-05-29T12:50:49.401622+01:00",
            "updated_at": "2022-05-29T12:50:49.401630+01:00"
        },
        {
            "id": 19,
            "name": "Oncology",
            "desc": "Oncology",
            "slug": "/category/oncology",
            "created_at": "2022-05-29T12:50:49.393487+01:00",
            "updated_at": "2022-05-29T12:50:49.393494+01:00"
        },
        {
            "id": 18,
            "name": "Medical Devices and Consumables",
            "desc": "Medical Devices and Consumables",
            "slug": "/category/medical-devices-and-consumables",
            "created_at": "2022-05-29T12:50:49.389886+01:00",
            "updated_at": "2022-05-29T12:50:49.389893+01:00"
        },
        {
            "id": 17,
            "name": "Household",
            "desc": "Household",
            "slug": "/category/household",
            "created_at": "2022-05-29T12:50:49.382037+01:00",
            "updated_at": "2022-05-29T12:50:49.382045+01:00"
        },
        {
            "id": 15,
            "name": "GIT",
            "desc": "GIT",
            "slug": "/category/git",
            "created_at": "2022-05-29T12:50:49.371125+01:00",
            "updated_at": "2022-05-29T12:50:49.371133+01:00"
        },
        {
            "id": 14,
            "name": "Fluid & Electrolyte Balance",
            "desc": "Fluid & Electrolyte Balance",
            "slug": "/category/fluid-electrolyte-balance",
            "created_at": "2022-05-29T12:50:49.363347+01:00",
            "updated_at": "2022-05-29T12:50:49.363355+01:00"
        },
        {
            "id": 12,
            "name": "Endocrine System",
            "desc": "Endocrine System",
            "slug": "/category/endocrine-system",
            "created_at": "2022-05-29T12:50:49.349340+01:00",
            "updated_at": "2022-05-29T12:50:49.349348+01:00"
        },
        {
            "id": 11,
            "name": "ENT & Opthalmic",
            "desc": "ENT & Opthalmic",
            "slug": "/category/ent-opthalmic",
            "created_at": "2022-05-29T12:50:49.343184+01:00",
            "updated_at": "2022-05-29T12:50:49.343192+01:00"
        },
        {
            "id": 10,
            "name": "Cough,Cold & Respiratory System",
            "desc": "Cough,Cold & Respiratory System",
            "slug": "/category/coughcold-respiratory-system",
            "created_at": "2022-05-29T12:50:49.331830+01:00",
            "updated_at": "2022-05-29T12:50:49.331839+01:00"
        },
        {
            "id": 9,
            "name": "Central Nervous System",
            "desc": "Central Nervous System",
            "slug": "/category/central-nervous-system",
            "created_at": "2022-05-29T12:50:49.324349+01:00",
            "updated_at": "2022-05-29T12:50:49.324356+01:00"
        },
        {
            "id": 8,
            "name": "Anti-Virals",
            "desc": "Anti-Virals",
            "slug": "/category/anti-virals",
            "created_at": "2022-05-29T12:50:49.316879+01:00",
            "updated_at": "2022-05-29T12:50:49.316887+01:00"
        },
        {
            "id": 7,
            "name": "Anti-Septics & Disinfectants",
            "desc": "Anti-Septics & Disinfectants",
            "slug": "/category/anti-septics-disinfectants",
            "created_at": "2022-05-29T12:50:49.312990+01:00",
            "updated_at": "2022-05-29T12:50:49.312999+01:00"
        },
        {
            "id": 6,
            "name": "Anti-Malarial",
            "desc": "Anti-Malarial",
            "slug": "/category/anti-malarial",
            "created_at": "2022-05-29T12:50:49.303561+01:00",
            "updated_at": "2022-05-29T12:50:49.303570+01:00"
        },
        {
            "id": 5,
            "name": "Anti-Hypertensives & Cardiovascular",
            "desc": "Anti-Hypertensives & Cardiovascular",
            "slug": "/category/anti-hypertensives-cardiovascular",
            "created_at": "2022-05-29T12:50:49.294059+01:00",
            "updated_at": "2022-05-29T12:50:49.294071+01:00"
        },
        {
            "id": 4,
            "name": "Anti-Histamines",
            "desc": "Anti-Histamines",
            "slug": "/category/anti-histamines",
            "created_at": "2022-05-29T12:50:49.280168+01:00",
            "updated_at": "2022-05-29T12:50:49.280176+01:00"
        },
        {
            "id": 3,
            "name": "Anti-Fungals",
            "desc": "Anti-Fungals",
            "slug": "/category/anti-fungals",
            "created_at": "2022-05-29T12:50:49.272011+01:00",
            "updated_at": "2022-05-29T12:50:49.272019+01:00"
        },
        {
            "id": 2,
            "name": "Anti-Biotics",
            "desc": "Anti-Biotics",
            "slug": "/category/anti-biotics",
            "created_at": "2022-05-29T12:50:49.266054+01:00",
            "updated_at": "2022-05-29T12:50:49.266062+01:00"
        },
        {
            "id": 1,
            "name": "Analgesics",
            "desc": "Analgesics",
            "slug": "analgesics",
            "created_at": "2022-05-29T12:50:49.254786+01:00",
            "updated_at": "2022-05-29T12:50:49.254796+01:00"
        }
    ]
    },
    {
      "name": "Account",
      "childrens": [
        {
          "name": "General",
          "slug": "/account"
        },
        {
          "name": "Purchase History",
          "slug": "/account/purchase_history"
        },
        {
          "name": "DrugStoc Pay",
          "slug": "/account/wallet"
        },
        {
          "name": "Management Account",
          "childrens": [
            {
              "name": "Personal Information",
              "slug": "/account/personal_info"
            },
            {
              "name": "Business Information",
              "slug": "/account/business"
            },
            {
              "name": "Shipping Address",
              "slug": "/account/shipping_address"
            }
          ]
        },
        {
          "name": "My DrugStoc",
          "childrens": [
            {
              "name": "My Favorite",
              "slug": "/account/favorite"
            }
          ]
        },
        {
          "name": "Customer Service",
          "childrens": [
            {
              "name": "Change Password",
              "slug": "/account/change-password"
            },
            {
              "name": "Help",
              "slug": "/login"
            }
          ]
        }
      ]
    },
    {
      "name": "Manufacturer",
      "slug": "/manufacturer"
    },
    {
      "name": "Cart",
      "slug": "/cart"
    }
  ]
  